// Jest Snapshot v1, https://goo.gl/fbAQLP

exports[`Account Connection Utils should return a PageInfo object with a start_cursor, end_cursor, has_next_page, and !has_previous_page 1`] = `
Object {
  "end_cursor": "ooeHBn4BDojRRLsNc4eWta1JrHoxGEEU8p2EjufpUcRNMcKJyNb:0",
  "has_next_page": true,
  "has_previous_page": false,
  "start_cursor": "ooXu4igMeKVc2CT7CYUa62WxJRcpXJosLM2FF1vBXmBT61FR19K:0",
}
`;

exports[`Account Connection Utils should return a SQL order by clause string 1`] = `"ORDER BY id DESC, hash ASC, op_id ASC"`;

exports[`Account Connection Utils should return a SQL order by clause string 2`] = `"ORDER BY id ASC, hash ASC, op_id ASC"`;

exports[`Account Connection Utils should return a SQL where clause string that reflects order by data 1`] = `"WHERE (((id <= '25134187') AND (hash >= 'ongxtfJMZ6tdbwxUKE46463gk6rVuWHk6WNWHcSgN1Q6obmm6q1' AND op_id > '0')) OR ((id <= '25134187') AND (hash != 'ongxtfJMZ6tdbwxUKE46463gk6rVuWHk6WNWHcSgN1Q6obmm6q1')))"`;

exports[`Account Connection Utils should return a SQL where clause string that reflects order by data 2`] = `"WHERE (((id >= '25210415') AND (hash >= 'opEHTGa4n4efFQfpaWFNqoY4dbzXrBEo7Xo8v74AX5pEREqK28S' AND op_id > '0')) OR ((id >= '25210415') AND (hash != 'opEHTGa4n4efFQfpaWFNqoY4dbzXrBEo7Xo8v74AX5pEREqK28S')))"`;

exports[`Account Connection Utils should return an RelayConnection(transaction) object with edges and page_info 1`] = `
TransactionConnection {
  "edges": Array [
    Object {
      "cursor": "oop8aPtDYg7K3xqqMadPKoXzxTLNpBukasrKtBQs9bsjXQ1UWVt:1",
      "node": Object {
        "amount": 1000000,
        "batch_position": 1,
        "block": "BLowVvoAyjeoMY4BRja6rEPdX37UjfdeB4JFtgQ4ZvCiRg9MNdA",
        "consumed_milligas": 100000,
        "contract_address": null,
        "counter": 19869,
        "destination": "tz1MBidfvWhJ64MuJapKExcP5SV4HQWyiJwS",
        "entrypoint": null,
        "fee": 0,
        "gas_limit": 0,
        "hash": "oop8aPtDYg7K3xqqMadPKoXzxTLNpBukasrKtBQs9bsjXQ1UWVt",
        "id": 1427150,
        "kind": "transaction",
        "level": 102031,
        "parameters": null,
        "source": "tz1PECYmqmuba13rnNxyoBkvH2ChUt8BuJuG",
        "storage_limit": 0,
        "timestamp": "2018-09-13T16:12:50.000Z",
      },
    },
    Object {
      "cursor": "opQqKKXhzznFRxMPdiLyP4V1KWfuDrrNSkqF8jQ6v4JENR3K6jP:0",
      "node": Object {
        "amount": 14,
        "batch_position": 0,
        "block": "BMQzE1UWod12P5XkE15fS4CNRvKLqmWknwCEDuTP1FKEhzrVjtU",
        "consumed_milligas": 100000,
        "contract_address": null,
        "counter": 59234,
        "destination": "tz1MBidfvWhJ64MuJapKExcP5SV4HQWyiJwS",
        "entrypoint": null,
        "fee": 10,
        "gas_limit": 200,
        "hash": "opQqKKXhzznFRxMPdiLyP4V1KWfuDrrNSkqF8jQ6v4JENR3K6jP",
        "id": 1425714,
        "kind": "transaction",
        "level": 101957,
        "parameters": null,
        "source": "tz1LBEKXaxQbd5Gtzbc1ATCwc3pppu81aWGc",
        "storage_limit": 0,
        "timestamp": "2018-09-13T14:51:20.000Z",
      },
    },
  ],
  "page_info": Object {
    "end_cursor": "opQqKKXhzznFRxMPdiLyP4V1KWfuDrrNSkqF8jQ6v4JENR3K6jP:0",
    "has_next_page": true,
    "has_previous_page": false,
    "start_cursor": "oop8aPtDYg7K3xqqMadPKoXzxTLNpBukasrKtBQs9bsjXQ1UWVt:1",
  },
}
`;

exports[`Account Connection Utils should return an RelayEdge array with 2 edges in the array each contain a cursor string and a node object 1`] = `
Array [
  TransactionEdge {
    "cursor": "oop8aPtDYg7K3xqqMadPKoXzxTLNpBukasrKtBQs9bsjXQ1UWVt:1",
    "node": Object {
      "amount": 1000000,
      "batch_position": 1,
      "block": "BLowVvoAyjeoMY4BRja6rEPdX37UjfdeB4JFtgQ4ZvCiRg9MNdA",
      "consumed_milligas": 100000,
      "contract_address": null,
      "counter": "19869",
      "cursor": "oop8aPtDYg7K3xqqMadPKoXzxTLNpBukasrKtBQs9bsjXQ1UWVt:1",
      "destination": "tz1MBidfvWhJ64MuJapKExcP5SV4HQWyiJwS",
      "entrypoint": null,
      "fee": 0,
      "gas_limit": "0",
      "hash": "oop8aPtDYg7K3xqqMadPKoXzxTLNpBukasrKtBQs9bsjXQ1UWVt",
      "id": 1427150,
      "kind": "transaction",
      "level": 102031,
      "parameters": null,
      "source": "tz1PECYmqmuba13rnNxyoBkvH2ChUt8BuJuG",
      "storage_limit": "0",
      "timestamp": "2018-09-13T16:12:50.000Z",
    },
  },
  TransactionEdge {
    "cursor": "opQqKKXhzznFRxMPdiLyP4V1KWfuDrrNSkqF8jQ6v4JENR3K6jP:0",
    "node": Object {
      "amount": 14,
      "batch_position": 0,
      "block": "BMQzE1UWod12P5XkE15fS4CNRvKLqmWknwCEDuTP1FKEhzrVjtU",
      "consumed_milligas": 100000,
      "contract_address": null,
      "counter": "59234",
      "cursor": "opQqKKXhzznFRxMPdiLyP4V1KWfuDrrNSkqF8jQ6v4JENR3K6jP:0",
      "destination": "tz1MBidfvWhJ64MuJapKExcP5SV4HQWyiJwS",
      "entrypoint": null,
      "fee": 10,
      "gas_limit": "200",
      "hash": "opQqKKXhzznFRxMPdiLyP4V1KWfuDrrNSkqF8jQ6v4JENR3K6jP",
      "id": 1425714,
      "kind": "transaction",
      "level": 101957,
      "parameters": null,
      "source": "tz1LBEKXaxQbd5Gtzbc1ATCwc3pppu81aWGc",
      "storage_limit": "0",
      "timestamp": "2018-09-13T14:51:20.000Z",
    },
  },
]
`;
